module file_server

go 1.18

require (
	github.com/andybalholm/brotli v1.0.4 // indirect
	github.com/gofiber/fiber/v2 v2.33.0 // indirect
	github.com/klauspost/compress v1.15.0 // indirect
	github.com/pierrec/lz4/v4 v4.1.14 // indirect
	github.com/segmentio/kafka-go v0.4.31 // indirect
	github.com/sirupsen/logrus v1.8.1 // indirect
	github.com/valyala/bytebufferpool v1.0.0 // indirect
	github.com/valyala/fasthttp v1.35.0 // indirect
	github.com/valyala/tcplisten v1.0.0 // indirect
	golang.org/x/sys v0.0.0-20220227234510-4e6760a101f9 // indirect
)
